NAME,DISPLAY_NAME,DESCRIPTION,VALID_CONTAINER_NAMES,BUNDLE_RESTRICTIVE,DEFAULT_VALUE,GROUPING_ALGO,IS_ENV_ATTR,IS_GRADE_ATTRIBUTE,MODIFIABLE,TYPE,RESOLVE_NTF_VALUE_ALGO,SHOULD_PROPAGATE,VALID_VALUES
for_credit,For Credit,Specifies if runs in this session are to be considered for coverage credit,session,FALSE,FALSE, GROUPING_ALGO_NA_IF_NOT_EQUAL,FALSE,FALSE,TRUE,ATTRIBUTE_TYPE_BOOLEAN,,RESOLVE_NTF_VALUE_ALGO_INNER,

